…
# rarefysamples summarise = FALSE returns consistent results

    Code
      set.seed(42)
      dplyr::as_tibble(rarefysamples(x = test_dt, measure = c("ABUNDANCE", "BIOMASS"),
      summarise = FALSE))
    Output
      # A tibble: 768 x 7
         assemblageID minsamp SAMPLE_DESC  YEAR Species ABUNDANCE BIOMASS
                <int>   <int> <chr>       <int> <chr>       <int>   <dbl>
       1            1       2 A            2010 q              14    58.0
       2            1       2 A            2010 e               6   449. 
       3            1       2 A            2010 a               6  1077. 
       4            1       2 A            2010 j               8   186. 
       5            1       2 A            2011 d               9  1569. 
       6            1       2 A            2011 r               9   227. 
       7            1       2 A            2011 z               7   766. 
       8            1       2 A            2011 o              15   312. 
       9            1       2 A            2012 g               8  1355. 
      10            1       2 A            2012 v              12   906. 
      # i 758 more rows
