…
# resampling_core summarise = FALSE returns consistent results

    Code
      set.seed(42)
      dplyr::as_tibble(resampling_core(x = test_dt, measure = c("ABUNDANCE",
        "BIOMASS"), summarise = FALSE))
    Output
      # A tibble: 768 x 7
         assemblageID minsamp SAMPLE_DESC  YEAR Species ABUNDANCE BIOMASS
                <int>   <int> <chr>       <int> <chr>       <int>   <dbl>
       1            1       2 A            2010 j              14   153. 
       2            1       2 A            2010 r               5   165. 
       3            1       2 A            2010 m              11  2020. 
       4            1       2 A            2010 u              13   529. 
       5            1       2 A            2011 v              16   471. 
       6            1       2 A            2011 s              15  1546. 
       7            1       2 A            2011 p              11    40.5
       8            1       2 A            2011 q               6   890. 
       9            1       2 A            2012 l               9  2071. 
      10            1       2 A            2012 i               6   250. 
      # i 758 more rows
